%YAML 1.1
%TAG !u! tag:unity3d.com,2011:
--- !u!1 &8280548392479034603
GameObject:
  m_ObjectHideFlags: 0
  m_CorrespondingSourceObject: {fileID: 0}
  m_PrefabInstance: {fileID: 0}
  m_PrefabAsset: {fileID: 0}
  serializedVersion: 6
  m_Component:
  - component: {fileID: 224762680718532456}
  - component: {fileID: 2905682277886796696}
  m_Layer: 0
  m_Name: Lubrificante
  m_TagString: Untagged
  m_Icon: {fileID: 0}
  m_NavMeshLayer: 0
  m_StaticEditorFlags: 0
  m_IsActive: 1
--- !u!4 &224762680718532456
Transform:
  m_ObjectHideFlags: 0
  m_CorrespondingSourceObject: {fileID: 0}
  m_PrefabInstance: {fileID: 0}
  m_PrefabAsset: {fileID: 0}
  m_GameObject: {fileID: 8280548392479034603}
  m_LocalRotation: {x: 0, y: 0, z: 0, w: 1}
  m_LocalPosition: {x: -2.21, y: 0.51, z: 0}
  m_LocalScale: {x: 1, y: 1, z: 1}
  m_Children: []
  m_Father: {fileID: 0}
  m_RootOrder: 0
  m_LocalEulerAnglesHint: {x: 0, y: 0, z: 0}
--- !u!114 &2905682277886796696
MonoBehaviour:
  m_ObjectHideFlags: 0
  m_CorrespondingSourceObject: {fileID: 0}
  m_PrefabInstance: {fileID: 0}
  m_PrefabAsset: {fileID: 0}
  m_GameObject: {fileID: 8280548392479034603}
  m_Enabled: 1
  m_EditorHideFlags: 0
  m_Script: {fileID: 11500000, guid: f3e9b60b3410b944a8d6def89c0d24ab, type: 3}
  m_Name: 
  m_EditorClassIdentifier: 
  thumbnail: {fileID: 21300000, guid: db485295c3069e843807f9246e91970e, type: 3}
  amountDamageIncreasePart: 20
  amountDamageIncreasePartRobot: 10
  amountDamageIncreasePartRobotDot: 5
  amountDamageIncreasePartDino: 10
  amountDamageIncreasePartDinoBuff: 5
