%YAML 1.1
%TAG !u! tag:unity3d.com,2011:
--- !u!1001 &4173965552833601446
PrefabInstance:
  m_ObjectHideFlags: 0
  serializedVersion: 2
  m_Modification:
    m_TransformParent: {fileID: 0}
    m_Modifications:
    - target: {fileID: 5452465701288585532, guid: 6fa7bcec153c8d542be55eff23870a2c,
        type: 3}
      propertyPath: m_LocalPosition.x
      value: 0.71
      objectReference: {fileID: 0}
    - target: {fileID: 5452465701288585532, guid: 6fa7bcec153c8d542be55eff23870a2c,
        type: 3}
      propertyPath: m_LocalPosition.y
      value: -0.97
      objectReference: {fileID: 0}
    - target: {fileID: 5452465701288585532, guid: 6fa7bcec153c8d542be55eff23870a2c,
        type: 3}
      propertyPath: m_LocalPosition.z
      value: 0
      objectReference: {fileID: 0}
    - target: {fileID: 5452465701288585532, guid: 6fa7bcec153c8d542be55eff23870a2c,
        type: 3}
      propertyPath: m_LocalRotation.x
      value: -0
      objectReference: {fileID: 0}
    - target: {fileID: 5452465701288585532, guid: 6fa7bcec153c8d542be55eff23870a2c,
        type: 3}
      propertyPath: m_LocalRotation.y
      value: -0
      objectReference: {fileID: 0}
    - target: {fileID: 5452465701288585532, guid: 6fa7bcec153c8d542be55eff23870a2c,
        type: 3}
      propertyPath: m_LocalRotation.z
      value: -0
      objectReference: {fileID: 0}
    - target: {fileID: 5452465701288585532, guid: 6fa7bcec153c8d542be55eff23870a2c,
        type: 3}
      propertyPath: m_LocalRotation.w
      value: 1
      objectReference: {fileID: 0}
    - target: {fileID: 5452465701288585532, guid: 6fa7bcec153c8d542be55eff23870a2c,
        type: 3}
      propertyPath: m_RootOrder
      value: 0
      objectReference: {fileID: 0}
    - target: {fileID: 5452465701288585532, guid: 6fa7bcec153c8d542be55eff23870a2c,
        type: 3}
      propertyPath: m_LocalEulerAnglesHint.x
      value: 0
      objectReference: {fileID: 0}
    - target: {fileID: 5452465701288585532, guid: 6fa7bcec153c8d542be55eff23870a2c,
        type: 3}
      propertyPath: m_LocalEulerAnglesHint.y
      value: 0
      objectReference: {fileID: 0}
    - target: {fileID: 5452465701288585532, guid: 6fa7bcec153c8d542be55eff23870a2c,
        type: 3}
      propertyPath: m_LocalEulerAnglesHint.z
      value: 0
      objectReference: {fileID: 0}
    - target: {fileID: 5452465701288585534, guid: 6fa7bcec153c8d542be55eff23870a2c,
        type: 3}
      propertyPath: m_Name
      value: RightArm 2
      objectReference: {fileID: 0}
    m_RemovedComponents: []
  m_SourcePrefab: {fileID: 100100000, guid: 6fa7bcec153c8d542be55eff23870a2c, type: 3}
