%YAML 1.1
%TAG !u! tag:unity3d.com,2011:
--- !u!1001 &634668209824411956
PrefabInstance:
  m_ObjectHideFlags: 0
  serializedVersion: 2
  m_Modification:
    m_TransformParent: {fileID: 0}
    m_Modifications:
    - target: {fileID: 4333837791945825913, guid: d8f944d340e40134286b0d6faa66872a,
        type: 3}
      propertyPath: dmg
      value: 30
      objectReference: {fileID: 0}
    - target: {fileID: 4333837793565665988, guid: d8f944d340e40134286b0d6faa66872a,
        type: 3}
      propertyPath: m_SpriteTilingProperty.oldSize.x
      value: 2.69
      objectReference: {fileID: 0}
    - target: {fileID: 4333837793565665988, guid: d8f944d340e40134286b0d6faa66872a,
        type: 3}
      propertyPath: m_SpriteTilingProperty.oldSize.y
      value: 3.87
      objectReference: {fileID: 0}
    - target: {fileID: 4333837793565665989, guid: d8f944d340e40134286b0d6faa66872a,
        type: 3}
      propertyPath: m_Sprite
      value: 
      objectReference: {fileID: 21300000, guid: 642b201e19381064aa136c25f0e74195,
        type: 3}
    - target: {fileID: 4333837793565665992, guid: d8f944d340e40134286b0d6faa66872a,
        type: 3}
      propertyPath: m_Name
      value: RightLeg 1 Variant
      objectReference: {fileID: 0}
    - target: {fileID: 4333837793565665994, guid: d8f944d340e40134286b0d6faa66872a,
        type: 3}
      propertyPath: m_LocalPosition.x
      value: 0.06
      objectReference: {fileID: 0}
    - target: {fileID: 4333837793565665994, guid: d8f944d340e40134286b0d6faa66872a,
        type: 3}
      propertyPath: m_LocalPosition.y
      value: -0.86
      objectReference: {fileID: 0}
    - target: {fileID: 4333837793565665994, guid: d8f944d340e40134286b0d6faa66872a,
        type: 3}
      propertyPath: m_LocalPosition.z
      value: 0
      objectReference: {fileID: 0}
    - target: {fileID: 4333837793565665994, guid: d8f944d340e40134286b0d6faa66872a,
        type: 3}
      propertyPath: m_LocalRotation.x
      value: 0
      objectReference: {fileID: 0}
    - target: {fileID: 4333837793565665994, guid: d8f944d340e40134286b0d6faa66872a,
        type: 3}
      propertyPath: m_LocalRotation.y
      value: 0
      objectReference: {fileID: 0}
    - target: {fileID: 4333837793565665994, guid: d8f944d340e40134286b0d6faa66872a,
        type: 3}
      propertyPath: m_LocalRotation.z
      value: 0
      objectReference: {fileID: 0}
    - target: {fileID: 4333837793565665994, guid: d8f944d340e40134286b0d6faa66872a,
        type: 3}
      propertyPath: m_LocalRotation.w
      value: 1
      objectReference: {fileID: 0}
    - target: {fileID: 4333837793565665994, guid: d8f944d340e40134286b0d6faa66872a,
        type: 3}
      propertyPath: m_RootOrder
      value: 0
      objectReference: {fileID: 0}
    - target: {fileID: 4333837793565665994, guid: d8f944d340e40134286b0d6faa66872a,
        type: 3}
      propertyPath: m_LocalEulerAnglesHint.x
      value: 0
      objectReference: {fileID: 0}
    - target: {fileID: 4333837793565665994, guid: d8f944d340e40134286b0d6faa66872a,
        type: 3}
      propertyPath: m_LocalEulerAnglesHint.y
      value: 0
      objectReference: {fileID: 0}
    - target: {fileID: 4333837793565665994, guid: d8f944d340e40134286b0d6faa66872a,
        type: 3}
      propertyPath: m_LocalEulerAnglesHint.z
      value: 0
      objectReference: {fileID: 0}
    - target: {fileID: 4333837793565665995, guid: d8f944d340e40134286b0d6faa66872a,
        type: 3}
      propertyPath: thumbnail
      value: 
      objectReference: {fileID: 21300000, guid: 642b201e19381064aa136c25f0e74195,
        type: 3}
    m_RemovedComponents: []
  m_SourcePrefab: {fileID: 100100000, guid: d8f944d340e40134286b0d6faa66872a, type: 3}
