%YAML 1.1
%TAG !u! tag:unity3d.com,2011:
--- !u!1045 &1
EditorBuildSettings:
  m_ObjectHideFlags: 0
  serializedVersion: 2
  m_Scenes:
  - enabled: 1
    path: Assets/Scenes/SUSANASCENE.unity
    guid: a28c97a77d798a340baffe9ae8f16ff8
  - enabled: 1
    path: Assets/Scenes/PedroScene.unity
    guid: 792988840e2f66543b159628b4cf552c
  - enabled: 1
    path: Assets/Scenes/LoseScene.unity
    guid: 83f56d762d6f52d4483e0ec4bcd38043
  - enabled: 1
    path: Assets/Scenes/BARBIE.unity
    guid: b2f28ef2c2a37164f9cd22a974288f28
  - enabled: 1
    path: Assets/Scenes/Credits.unity
    guid: 96f01ca86d42a28408dd1242d107bb63
  - enabled: 1
    path: Assets/Scenes/DiogoScene.unity
    guid: d3bb17ccc6001bf459ff0adedc8b90ac
  m_configObjects: {}
